{
  "name": "pathfinder-ui",
  "title": "Pathfinder Ui v3",
  "description": "Theme only for Pathfinder 2e. <p>*** Join the official Discord server: <a href=\"https://discord.gg/foundryvtt\"> Official Discord</a></p><p>*** Rejoignez la communauté Francophone: <a href=\"https://discord.gg/pPSDNJk\">Francophone Discord</a></p>",
  "author": "Sasmira",
    "authors": [
        {
            "name": "Sasmira",
            "email": "sasmyra@gmail.com",
            "url": "https://gitlab.com/sasmira/pathfinder-ui",
            "Discord": "Sasmira#4566"
        }
    ],
  "flags": {},
  "version": "9.249.3",
  "minimumCoreVersion": "9",
  "compatibleCoreVersion": "9",
  "scripts": [
    "scripts/rpg-ui.js"
  ],
  "esmodules": [
    "scripts/dicefinder.js"
  ],
  "styles": [],
  "languages": [
    {
      "lang": "en",
      "name": "English",
      "path": "lang/en.json"
    },
    {
      "lang": "fr",
      "name": "French (Français)",
      "path": "lang/fr.json"
    },
    {
      "lang": "es",
      "name": "Spanish (Español)",
      "path": "lang/es.json"
    }
  ],
  "packs": [],
  "system": ["pf2e"],
  "dependencies": [],
  "socket": false,
  "url": "https://gitlab.com/sasmira/pathfinder-ui",
  "manifest": "https://gitlab.com/sasmira/pathfinder-ui/-/raw/master/module/module.json",
  "download": "https://gitlab.com/sasmira/pathfinder-ui/-/jobs/artifacts/v9.249.3/raw/pathfinder-ui.zip?job=build",
  "protected": false,
  "coreTranslation": false,
  "library": false
}
